^C:\USERS\SELORM\DOCUMENTS\VISUAL STUDIO 2015\PROJECTS\CONVERTERCE3PROJECT\CONVERTERCE3PROJECT\DEBUG\APP.XAML.OBJ|C:\USERS\SELORM\DOCUMENTS\VISUAL STUDIO 2015\PROJECTS\CONVERTERCE3PROJECT\CONVERTERCE3PROJECT\DEBUG\MAINPAGE.XAML.OBJ|C:\USERS\SELORM\DOCUMENTS\VISUAL STUDIO 2015\PROJECTS\CONVERTERCE3PROJECT\CONVERTERCE3PROJECT\DEBUG\PCH.OBJ|C:\USERS\SELORM\DOCUMENTS\VISUAL STUDIO 2015\PROJECTS\CONVERTERCE3PROJECT\CONVERTERCE3PROJECT\DEBUG\XAMLTYPEINFO.IMPL.G.OBJ|C:\USERS\SELORM\DOCUMENTS\VISUAL STUDIO 2015\PROJECTS\CONVERTERCE3PROJECT\CONVERTERCE3PROJECT\__WINMD_ONLY__
/OUT:"C:\USERS\SELORM\DOCUMENTS\VISUAL STUDIO 2015\PROJECTS\CONVERTERCE3PROJECT\DEBUG\CONVERTERCE3PROJECT\CONVERTERCE3PROJECT.EXE" /INCREMENTAL /NOLOGO kernel32.lib /MANIFEST:NO /DEBUG /PDB:"C:\USERS\SELORM\DOCUMENTS\VISUAL STUDIO 2015\PROJECTS\CONVERTERCE3PROJECT\DEBUG\CONVERTERCE3PROJECT\CONVERTERCE3PROJECT.PDB" /SUBSYSTEM:WINDOWS /TLBID:1 /APPCONTAINER /WINMD:ONLY /WINMDFILE:"C:\USERS\SELORM\DOCUMENTS\VISUAL STUDIO 2015\PROJECTS\CONVERTERCE3PROJECT\DEBUG\CONVERTERCE3PROJECT\CONVERTERCE3PROJECT.WINMD" /DYNAMICBASE /NXCOMPAT /MACHINE:X86 DEBUG\APP.XAML.OBJDEBUG\MAINPAGE.XAML.OBJDEBUG\PCH.OBJDEBUG\XAMLTYPEINFO.IMPL.G.OBJ
^C:\USERS\SELORM\DOCUMENTS\VISUAL STUDIO 2015\PROJECTS\CONVERTERCE3PROJECT\CONVERTERCE3PROJECT\DEBUG\APP.XAML.OBJ|C:\USERS\SELORM\DOCUMENTS\VISUAL STUDIO 2015\PROJECTS\CONVERTERCE3PROJECT\CONVERTERCE3PROJECT\DEBUG\MAINPAGE.XAML.OBJ|C:\USERS\SELORM\DOCUMENTS\VISUAL STUDIO 2015\PROJECTS\CONVERTERCE3PROJECT\CONVERTERCE3PROJECT\DEBUG\PCH.OBJ|C:\USERS\SELORM\DOCUMENTS\VISUAL STUDIO 2015\PROJECTS\CONVERTERCE3PROJECT\CONVERTERCE3PROJECT\DEBUG\XAMLTYPEINFO.G.OBJ|C:\USERS\SELORM\DOCUMENTS\VISUAL STUDIO 2015\PROJECTS\CONVERTERCE3PROJECT\CONVERTERCE3PROJECT\DEBUG\XAMLTYPEINFO.IMPL.G.OBJ
/OUT:"C:\USERS\SELORM\DOCUMENTS\VISUAL STUDIO 2015\PROJECTS\CONVERTERCE3PROJECT\DEBUG\CONVERTERCE3PROJECT\CONVERTERCE3PROJECT.EXE" /INCREMENTAL /NOLOGO kernel32.lib /MANIFEST:NO /DEBUG /PDB:"C:\USERS\SELORM\DOCUMENTS\VISUAL STUDIO 2015\PROJECTS\CONVERTERCE3PROJECT\DEBUG\CONVERTERCE3PROJECT\CONVERTERCE3PROJECT.PDB" /SUBSYSTEM:WINDOWS /TLBID:1 /APPCONTAINER /WINMD:NO /WINMDFILE:"C:\USERS\SELORM\DOCUMENTS\VISUAL STUDIO 2015\PROJECTS\CONVERTERCE3PROJECT\DEBUG\CONVERTERCE3PROJECT\CONVERTERCE3PROJECT.WINMD" /DYNAMICBASE /NXCOMPAT /MACHINE:X86 DEBUG\APP.XAML.OBJDEBUG\MAINPAGE.XAML.OBJDEBUG\PCH.OBJDEBUG\XAMLTYPEINFO.IMPL.G.OBJDEBUG\XAMLTYPEINFO.G.OBJ
^C:\USERS\SELORM\DOCUMENTS\CONVERTERCE3PROJECT\CONVERTERCE3PROJECT\DEBUG\APP.XAML.OBJ|C:\USERS\SELORM\DOCUMENTS\CONVERTERCE3PROJECT\CONVERTERCE3PROJECT\DEBUG\MAINPAGE.XAML.OBJ|C:\USERS\SELORM\DOCUMENTS\CONVERTERCE3PROJECT\CONVERTERCE3PROJECT\DEBUG\PCH.OBJ|C:\USERS\SELORM\DOCUMENTS\CONVERTERCE3PROJECT\CONVERTERCE3PROJECT\DEBUG\XAMLTYPEINFO.IMPL.G.OBJ|C:\USERS\SELORM\DOCUMENTS\CONVERTERCE3PROJECT\CONVERTERCE3PROJECT\__WINMD_ONLY__
/OUT:"C:\USERS\SELORM\DOCUMENTS\CONVERTERCE3PROJECT\DEBUG\CONVERTERCE3PROJECT\CONVERTERCE3PROJECT.EXE" /INCREMENTAL /NOLOGO kernel32.lib /MANIFEST:NO /DEBUG /PDB:"C:\USERS\SELORM\DOCUMENTS\CONVERTERCE3PROJECT\DEBUG\CONVERTERCE3PROJECT\CONVERTERCE3PROJECT.PDB" /SUBSYSTEM:WINDOWS /TLBID:1 /APPCONTAINER /WINMD:ONLY /WINMDFILE:"C:\USERS\SELORM\DOCUMENTS\CONVERTERCE3PROJECT\DEBUG\CONVERTERCE3PROJECT\CONVERTERCE3PROJECT.WINMD" /DYNAMICBASE /NXCOMPAT /MACHINE:X86 DEBUG\APP.XAML.OBJDEBUG\MAINPAGE.XAML.OBJDEBUG\PCH.OBJDEBUG\XAMLTYPEINFO.IMPL.G.OBJ
^C:\USERS\SELORM\DOCUMENTS\CONVERTERCE3PROJECT\CONVERTERCE3PROJECT\DEBUG\APP.XAML.OBJ|C:\USERS\SELORM\DOCUMENTS\CONVERTERCE3PROJECT\CONVERTERCE3PROJECT\DEBUG\MAINPAGE.XAML.OBJ|C:\USERS\SELORM\DOCUMENTS\CONVERTERCE3PROJECT\CONVERTERCE3PROJECT\DEBUG\PCH.OBJ|C:\USERS\SELORM\DOCUMENTS\CONVERTERCE3PROJECT\CONVERTERCE3PROJECT\DEBUG\XAMLTYPEINFO.G.OBJ|C:\USERS\SELORM\DOCUMENTS\CONVERTERCE3PROJECT\CONVERTERCE3PROJECT\DEBUG\XAMLTYPEINFO.IMPL.G.OBJ
/OUT:"C:\USERS\SELORM\DOCUMENTS\CONVERTERCE3PROJECT\DEBUG\CONVERTERCE3PROJECT\CONVERTERCE3PROJECT.EXE" /INCREMENTAL /NOLOGO kernel32.lib /MANIFEST:NO /DEBUG /PDB:"C:\USERS\SELORM\DOCUMENTS\CONVERTERCE3PROJECT\DEBUG\CONVERTERCE3PROJECT\CONVERTERCE3PROJECT.PDB" /SUBSYSTEM:WINDOWS /TLBID:1 /APPCONTAINER /WINMD:NO /WINMDFILE:"C:\USERS\SELORM\DOCUMENTS\CONVERTERCE3PROJECT\DEBUG\CONVERTERCE3PROJECT\CONVERTERCE3PROJECT.WINMD" /DYNAMICBASE /NXCOMPAT /MACHINE:X86 DEBUG\APP.XAML.OBJDEBUG\MAINPAGE.XAML.OBJDEBUG\PCH.OBJDEBUG\XAMLTYPEINFO.IMPL.G.OBJDEBUG\XAMLTYPEINFO.G.OBJ
