^C:\USERS\SELORM\DOCUMENTS\VISUAL STUDIO 2015\PROJECTS\CONVERTERCE3PROJECT\NUMBERCONVERTER\DEBUG\COMPLIMENTCONVERTING.OBJ|C:\USERS\SELORM\DOCUMENTS\VISUAL STUDIO 2015\PROJECTS\CONVERTERCE3PROJECT\NUMBERCONVERTER\DEBUG\CONVERTDATA.OBJ|C:\USERS\SELORM\DOCUMENTS\VISUAL STUDIO 2015\PROJECTS\CONVERTERCE3PROJECT\NUMBERCONVERTER\DEBUG\PCH.OBJ
C:\PROGRAM FILES (X86)\WINDOWS KITS\8.1\LIB\WINV6.3\UM\X86\RUNTIMEOBJECT.LIB
C:\PROGRAM FILES (X86)\WINDOWS KITS\8.1\LIB\WINV6.3\UM\X86\KERNEL32.LIB
C:\USERS\SELORM\DOCUMENTS\VISUAL STUDIO 2015\PROJECTS\CONVERTERCE3PROJECT\NUMBERCONVERTER\DEBUG\COMPLIMENTCONVERTING.OBJ
C:\USERS\SELORM\DOCUMENTS\VISUAL STUDIO 2015\PROJECTS\CONVERTERCE3PROJECT\NUMBERCONVERTER\DEBUG\PCH.OBJ
C:\USERS\SELORM\DOCUMENTS\VISUAL STUDIO 2015\PROJECTS\CONVERTERCE3PROJECT\NUMBERCONVERTER\DEBUG\CONVERTDATA.OBJ
C:\WINDOWS\SYSTEM32\TZRES.DLL
C:\WINDOWS\GLOBALIZATION\SORTING\SORTDEFAULT.NLS
C:\PROGRAM FILES (X86)\MICROSOFT VISUAL STUDIO 12.0\VC\LIB\STORE\VCCORLIBD.LIB
C:\PROGRAM FILES (X86)\MICROSOFT VISUAL STUDIO 12.0\VC\LIB\STORE\MSVCPRTD.LIB
C:\PROGRAM FILES (X86)\WINDOWS KITS\8.1\LIB\WINV6.3\UM\X86\UUID.LIB
C:\PROGRAM FILES (X86)\MICROSOFT VISUAL STUDIO 12.0\VC\LIB\STORE\MSVCRTD.LIB
C:\PROGRAM FILES (X86)\MICROSOFT VISUAL STUDIO 12.0\VC\LIB\STORE\OLDNAMES.LIB
C:\PROGRAM FILES (X86)\WINDOWS KITS\8.1\LIB\WINV6.3\UM\X86\OLE32.LIB
C:\PROGRAM FILES (X86)\MICROSOFT VISUAL STUDIO 12.0\VC\BIN\LINK.EXE
C:\WINDOWS\MICROSOFT.NET\FRAMEWORK\V2.0.50727\MSCORWKS.DLL
C:\WINDOWS\MICROSOFT.NET\FRAMEWORK\V4.0.30319\CLR.DLL
C:\PROGRAM FILES (X86)\MICROSOFT VISUAL STUDIO 12.0\VC\BIN\LINK.EXE.CONFIG
C:\PROGRAM FILES (X86)\MICROSOFT VISUAL STUDIO 12.0\VC\BIN\1033\LINKUI.DLL
C:\USERS\SELORM\DOCUMENTS\VISUAL STUDIO 2015\PROJECTS\CONVERTERCE3PROJECT\DEBUG\NUMBERCONVERTER\NUMBERCONVERTER.WINMD
^C:\USERS\SELORM\DOCUMENTS\CONVERTERCE3PROJECT\NUMBERCONVERTER\DEBUG\COMPLIMENTCONVERTING.OBJ|C:\USERS\SELORM\DOCUMENTS\CONVERTERCE3PROJECT\NUMBERCONVERTER\DEBUG\CONVERTDATA.OBJ|C:\USERS\SELORM\DOCUMENTS\CONVERTERCE3PROJECT\NUMBERCONVERTER\DEBUG\PCH.OBJ
C:\PROGRAM FILES (X86)\WINDOWS KITS\8.1\LIB\WINV6.3\UM\X86\RUNTIMEOBJECT.LIB
C:\PROGRAM FILES (X86)\WINDOWS KITS\8.1\LIB\WINV6.3\UM\X86\KERNEL32.LIB
C:\USERS\SELORM\DOCUMENTS\CONVERTERCE3PROJECT\NUMBERCONVERTER\DEBUG\COMPLIMENTCONVERTING.OBJ
C:\USERS\SELORM\DOCUMENTS\CONVERTERCE3PROJECT\NUMBERCONVERTER\DEBUG\PCH.OBJ
C:\USERS\SELORM\DOCUMENTS\CONVERTERCE3PROJECT\NUMBERCONVERTER\DEBUG\CONVERTDATA.OBJ
C:\WINDOWS\SYSTEM32\TZRES.DLL
C:\WINDOWS\GLOBALIZATION\SORTING\SORTDEFAULT.NLS
C:\WINDOWS\MICROSOFT.NET\FRAMEWORK\V2.0.50727\MSCORWKS.DLL
C:\WINDOWS\MICROSOFT.NET\FRAMEWORK\V4.0.30319\CLR.DLL
C:\PROGRAM FILES (X86)\MICROSOFT VISUAL STUDIO 12.0\VC\BIN\LINK.EXE.CONFIG
C:\PROGRAM FILES (X86)\MICROSOFT VISUAL STUDIO 12.0\VC\LIB\STORE\VCCORLIBD.LIB
C:\PROGRAM FILES (X86)\MICROSOFT VISUAL STUDIO 12.0\VC\LIB\STORE\MSVCPRTD.LIB
C:\PROGRAM FILES (X86)\WINDOWS KITS\8.1\LIB\WINV6.3\UM\X86\UUID.LIB
C:\PROGRAM FILES (X86)\MICROSOFT VISUAL STUDIO 12.0\VC\LIB\STORE\MSVCRTD.LIB
C:\PROGRAM FILES (X86)\MICROSOFT VISUAL STUDIO 12.0\VC\LIB\STORE\OLDNAMES.LIB
C:\PROGRAM FILES (X86)\WINDOWS KITS\8.1\LIB\WINV6.3\UM\X86\OLE32.LIB
C:\PROGRAM FILES (X86)\MICROSOFT VISUAL STUDIO 12.0\VC\BIN\1033\LINKUI.DLL
C:\USERS\SELORM\DOCUMENTS\CONVERTERCE3PROJECT\DEBUG\NUMBERCONVERTER\NUMBERCONVERTER.WINMD
